L01 Introduction
…
Duplo sets hover around 5 to 50 pieces per set with a slow increase in the number of pieces over time. All non Duplo sets have seen an increase in the average number of pieces per set over time

LEGO set themes

In the 1990s, LEGO began partnering with famous brands and franchises to boost its own sales. First, lets see how many different themes LEGO now offers:

legosets %>% 
  distinct(theme)

## # A tibble: 115 x 1
##    theme           
##    <chr>           
##  1 Advanced Models 
##  2 Duplo           
##  3 Juniors         
##  4 Classic         
##  5 Architecture    
##  6 Minecraft       
##  7 Ideas           
##  8 Friends         
##  9 Legends of Chima
## 10 Star Wars       
## #  with 105 more rows
…
